{
"routes":{
    "FV6702": {
        "name": "Boeing 737-46Q(SF)",
        "registration": "RA-89051",
        "start": "2016-01-23 10:00:11",
        "tr": [
            [33, 33],
            [36, 38],
            [45, 65]
        ],
        "speed": "375"
    },
    "IV4673": {
        "name": "Boeing 737-46Q(SF)",
        "registration": "RA-34754",
        "start": "2016-02-12 11:11:11",
        "tr": [
            [33, 33],
            [38, 41],
            [55, 70]
        ],
        "speed": "375"
    },
    "FV4673": {
        "name": "Boeing 737-46Q(SF)",
        "registration": "RA-23454",
        "start": "2015-03-30 11:11:11",
        "tr": [
            [33, 33],
            [37, 24],
            [43, 45]
        ],
        "speed": "375"
    }
}
}
